{
  "results": [
    {
      "goto_cookie_lifetime": 60,
      "rating": "3.3",
      "image": "http://cdn.admitad.com/campaign/images/2017/10/31/7bd130435c2e4c3f6d9688ef10dba1aa.png",
      "currency": "RUB",
      "activation_date": "2017-10-31T17:19:46",
      "id": 18669,
      "connection_status": "active",
      "gotolink": "https://ad.admitad.com/g/k15msx7fve162aae1f4eea7e0adbb8/",
      "site_url": "https://general-food.ru/",
      "regions": [
        {
          "region": "RU"
        }
      ],
      "status": "active",
      "description": "General Food &ndash; фудтех компания, занимающаяся производством и доставкой здорового питания на весь день в Москве.\r\n&nbsp;\r\n\r\nЗарабатывайте вместе с General-food!\r\n\r\nБонусы:&nbsp; Распространяется только на оплаченный заказ нового пользователя!\r\n\r\nПериод: месяц\r\n\r\nВсе вознаграждения касаются только рационов, интернет магазин не подпадает под бонусную программу&nbsp;\r\n\r\nот 10 заказов и более - 300 руб\r\nот 20 заказов и более - 1000 руб\r\nот 50 заказов и более - 5000 руб\r\nот 100 заказов и более - 10 000 руб\r\nот 200 заказов и более - 20 000 руб\r\nот 300 заказов и более - 30 000 руб\r\nот 400 заказов и более - 40 000 руб\r\nот 500 заказов и более - 50 000 руб\r\n\r\nКаждые два дня курьер привозит клиенту еду на следующие два дня. Каждое блюдо упаковано в специальные вакуумные пакеты и контейнеры, что позволяет избежать протекания или потери вкусовых свойств и увеличивает срок хранения. Компания является одним из лидеров рынка по качеству продукта: возврат после первого заказа составляет 90% (в разы превышает возврат клиентов у компаний-конкурентов)\r\n\r\nВозможности клиента:\r\n\r\n\r\n\tзаказать готовый рацион (на 6/12/18/24 дня): меню на каждый день фиксировано\r\n\tсобрать собственный рацион (на 2/6 дней): клиент сам выбирает блюда для каждого приема пищи на каждый день\r\n\tзаказать отдельные блюда в интернет-магазине (минимальная сумма заказа &ndash; 1500₽)\r\n\r\n\r\nЦелевая аудитория бренда:\r\n\r\n\r\n\tжители Москвы (внутри МКАД)\r\n\tдоход от 80.000₽ в месяц\r\n\r\n\r\nТипы целевого клиента:\r\n\r\n\r\n\tнепрофессиональные спортсмены, работающие в сфере интеллектуального труда \r\n\tвладельцы собственного бизнеса и топ-менеджеры небольших компаний\r\n\tменеджеры среднего звена в больших компаниях (Яндекс, Mars, Unilever, Mail.Ru, Sanofi и проч.)\r\n\tжены владельцев бизнеса и топ-менеджеров\r\n\r\n\r\nНемного технической статистики\r\n\r\n&nbsp;\r\n\r\nОпорные поисковые фразы:\r\n\r\n\r\n\tсбалансированное питание\r\n\tздоровое питание с доставкой\r\n\tдоставка правильного питания\r\n\tпитание с доставкой\r\n\tправильное питание с доставкой\r\n\tсбалансированное питание с доставкой\r\n\tготовая еда на неделю с доставкой\r\n\tпитание на неделю с доставкой\r\n\tдиетическое питание с доставкой",
      "modified_date": "2019-03-11T17:05:39",
      "categories": [
        {
          "language": "en",
          "id": 62,
          "parent": null,
          "name": "Online Shops"
        },
        {
          "language": "en",
          "id": 63,
          "parent": {
            "language": "en",
            "id": 62,
            "parent": null,
            "name": "Online Shops"
          },
          "name": "Food & Food delivery"
        }
      ],
      "name": "General Food"
    },
    {
      "goto_cookie_lifetime": 60,
      "rating": "2.9",
      "image": "http://cdn.admitad.com/campaign/images/2017/10/18/142bac0385dc45495a4a9e1e1e3f3fd7.jpg",
      "currency": "RUB",
      "activation_date": "2017-11-23T12:19:00",
      "id": 18680,
      "connection_status": "active",
      "gotolink": "https://ad.admitad.com/g/oejc34zjjc162aae1f4e5c9e9f2cb0/",
      "site_url": "https://funburg.ru/",
      "regions": [
        {
          "region": "RU"
        }
      ],
      "status": "active",
      "description": "О компании:\r\n\r\nВ&nbsp;интернет-магазине &laquo;Фанбург.ру&raquo; можно заказать доставку цветов, воздушных шаров и подарков по Москве и Екатеринбургу.&nbsp;Мы работаем в Екатеринбурге с 2007 года и постоянно стремимся к улучшению качества сервиса, делая доставку точной и надёжной, а временные и финансовые издержки наших клиентов &ndash; минимальными.\r\n\r\nНедавно мы вышли за пределы Екатеринбурга, и теперь свежие цветы и качественные воздушные шары от &laquo;Фанбург.ру&raquo; можно заказать с доставкой по Москве!&nbsp;\r\n\r\nНаши букеты и цветочные композиции отличаются исключительной свежестью, при их создании наши флористы всегда стремятся подчеркнуть естественную красоту цветов.\r\n\r\nФлористы компании &laquo;Фанбург&raquo;&nbsp;&ndash; молодые и целеустремленные специалисты по цветам в Екатеринбурге и в Москве, которые постоянно повышают свою квалификацию. Результатом является развитие ассортимента интернет-магазина, внедрение новых коллекций и т.д. Представленные в каталоге позиции являются лишь примерами того, что мы делаем, &ndash; флористы оформят любой заказ цветов в соответствии с пожеланиями клиента!\r\n\r\n&nbsp;\r\n\r\nПортрет целевой аудитории:\r\n\r\nГеография - Москва и Екатеринбург.\r\n\r\nДемография. Наиболее активными покупателями являются&nbsp;мужчины и женщины от 22 до 50 лет (если говорить про доставку цветов).\r\n\r\n&nbsp;\r\n\r\nПреимущества для покупателей:\r\n\r\n\r\n\tМного скидок для наших постоянных клиентов.\r\n\tУдобный сайт, большой выбор, свой оригинальный каталог товаров.\r\n\tТолько свежие цветы.&nbsp;Несколько раз в неделю у нас происходят прямые поставки цветов.\r\n\tОпыт работы. С 2007 года выполнили&nbsp;более 140 000 заказов.\r\n\tКруглосуточная точная оперативная доставка.\r\n\t&laquo;Фото букета перед доставкой&raquo;&nbsp;&ndash; бесплатная услуга для всех наших клиентов. Наши флористы сфотографируют собранный букет и отправят фотографию в WhatsApp, Viber или любым другим удобным способом.\r\n\tГарантия возврата денег.&nbsp;Если вас не устроит качество цветов, мы бесплатно заменим букет на новый, либо вернём деньги в полном объёме.\r\n\r\n\r\n&nbsp;\r\n\r\nПреимущества для партнеров:\r\n\r\n\r\n\tВысокий процент исполняемости заказов\r\n\tВысокий процент комиссии\r\n\tВысокая конверсия сайта, над увеличением которой мы постоянно работаем\r\n\tКачественный сайт и собственный каталог товаров, который мы ежедневно улучшаем",
      "categories": [
        {
          "language": "en",
          "id": 62,
          "parent": null,
          "name": "Online Shops"
        },
        {
          "language": "en",
          "id": 67,
          "parent": {
            "language": "en",
            "id": 62,
            "parent": null,
            "name": "Online Shops"
          },
          "name": "Health & Beauty"
        },
        {
          "language": "en",
          "id": 71,
          "parent": {
            "language": "en",
            "id": 62,
            "parent": null,
            "name": "Online Shops"
          },
          "name": "Accesories"
        },
        {
          "language": "en",
          "id": 72,
          "parent": {
            "language": "en",
            "id": 62,
            "parent": null,
            "name": "Online Shops"
          },
          "name": "Gifts & Flowers"
        },
        {
          "language": "en",
          "id": 89,
          "parent": {
            "language": "en",
            "id": 62,
            "parent": null,
            "name": "Online Shops"
          },
          "name": "Arts & Crafts"
        }
      ],
      "name": "Фанбург"
    },
    {
      "goto_cookie_lifetime": 60,
      "rating": "2.5",
      "image": "http://cdn.admitad.com/campaign/images/2018/1/11/c4e5ff17c2a0e0f9190491137f426e61.png",
      "currency": "RUB",
      "activation_date": "2018-01-11T17:12:01",
      "id": 18695,
      "connection_status": "active",
      "gotolink": "https://ad.admitad.com/g/adb8g0lihm162aae1f4e7452464e3b/",
      "site_url": "https://www.lopatnik.ru/",
      "regions": [
        {
          "region": "RU"
        }
      ],
      "status": "active",
      "description": "Lopatnik&nbsp;представляет собой магазин высококлассных&nbsp;товаров&nbsp;из натуральной кожи.\r\n\r\nВ магазине представлены товары оригинальных брендов ТОЛЬКО из натуральной кожи&nbsp;(Италия, Швейцария, США, Россия, Германия, Франция).\r\n\r\nВ нашем магазине вы не найдете подделок!\r\n\r\nВ основном ассортимент представлен деловой&nbsp;классической&nbsp;кожгалантереей.\r\n\r\n&nbsp;\r\n\r\nПортрет целевой аудитории:\r\n\r\nГеография\r\n\r\nПреимущественно Москва и Санкт-Петербург (доставка осуществляется по всей России).\r\n\r\nПол &ndash; 70% мужчины, 30% женщины.\r\n\r\nВозраст &ndash; от 25 лет.\r\n\r\nВ основном кожгалантерея деловая, поэтому наша аудитория &ndash; это те, кто всегда хочет выглядеть стильно.\r\n\r\nКлассика &ndash; дорого и всегда уместно.\r\n\r\n&nbsp;\r\n\r\nПреимущества для покупателей:\r\n\r\n\r\n\tСтрогий отбор и проверка всех изделий\r\n\tТолько оригиналы брендов\r\n\tТолько натуральная кожа\r\n\tЦены производителей\r\n\tМагазин в центре, не весь ассортимент, но многое можно приехать и&nbsp;посмотреть вживую.\r\n\tДоставка в любую точку России\r\n\tВсе виды оплаты (Все формы оплаты (наличные, карты, онлайн на сайте, безнал)",
      "modified_date": "2019-02-24T10:19:19",
      "categories": [
        {
          "language": "en",
          "id": 62,
          "parent": null,
          "name": "Online Shops"
        },
        {
          "language": "en",
          "id": 71,
          "parent": {
            "language": "en",
            "id": 62,
            "parent": null,
            "name": "Online Shops"
          },
          "name": "Accesories"
        },
        {
          "language": "en",
          "id": 157,
          "parent": null,
          "name": "International Women's Day "
        }
      ],
      "name": "Lopatnik"
    },
    {
      "goto_cookie_lifetime": 30,
      "rating": "3.0",
      "image": "http://cdn.admitad.com/campaign/images/2017/11/23/04e3b4766fb0161c80f8b9da161d57dc.png",
      "currency": "EUR",
      "activation_date": "2017-12-05T14:43:50",
      "id": 18696,
      "avg_hold_time": 25,
      "connection_status": "declined",
      "gotolink": "",
      "site_url": "http://kiwi.com/",
      "regions": [
        {
          "region": "CZ"
        },
        {
          "region": "DE"
        },
        {
          "region": "FR"
        },
        {
          "region": "GB"
        },
        {
          "region": "US"
        }
      ],
      "status": "active",
      "description": "Kiwi.com is a company that changes the travel industry!\r\n\r\nWe are the pioneers in virtual interlining and with our unique algorithm, we are able to create millions of flight combinations. Moreover, enhanced user-friendly design helps our customers to adjust various parameters and find the flight combination created particularly for them. With an extensive database of low-cost flights and traditional airlines, interactive map, and guaranteed arrival, the user experience skyrockets to another level.\r\n\r\n\r\n\tAverage Order Value = 370&euro;\r\n\tAverage CR = 6,8%\r\n\tAverage bookings per day = 16000\r\n\tSold seats per day = 30000\r\n\r\n\r\nKiwi.com Guarantee\r\n\r\nCan you imagine the situation that one of the flights got delayed and you are about to miss all the connections? The only thing our customers need to do is to contact our 24/7 Customers Support team via email, call or even chat! For more information check: Kiwi.com Guarantee here.\r\n\r\nCommission Rate\r\n\r\nWe offer our affiliates the highest commission on flights on the market:\r\n\r\n\r\n\t3% per transaction\r\n\t30 days cookies period\r\n\r\n\r\nBonus Structure\r\n\r\nMonthly bonus structure for all affiliates: For each 25 sales you bring in a given month, earn extra 25&euro; bonus.\r\n\r\nThe bonuses stack up, so bringing e.g. 100 sales in a given month means you earn 3% commission + 100&euro; of bonuses. Seasonal and time-limited promotions will be regularly communicated to all affiliates joined to the program.\r\n\r\nTools\r\n\r\n\r\n\tCustomizable Deeplinks\r\n\tBanners\r\n\r\n\r\nEarn money with the next level travel company that changes the way we travel!",
      "modified_date": "2017-12-05T14:43:50",
      "categories": [
        {
          "language": "en",
          "id": 40,
          "parent": null,
          "name": "Travel & Tourism"
        },
        {
          "language": "en",
          "id": 44,
          "parent": {
            "language": "en",
            "id": 40,
            "parent": null,
            "name": "Travel & Tourism"
          },
          "name": "Tickets sales and reservation"
        },
        {
          "language": "en",
          "id": 152,
          "parent": null,
          "name": "Travel Fest"
        }
      ],
      "name": "Kiwi.com Many GEO's"
    },
    {
      "goto_cookie_lifetime": 60,
      "rating": "3.0",
      "image": "http://cdn.admitad.com/campaign/images/2017/10/27/2c7ae52013c00c5ee331c1c46c5907e2.jpg",
      "currency": "RUB",
      "activation_date": "2017-10-31T17:40:43",
      "id": 18698,
      "avg_hold_time": 26,
      "connection_status": "active",
      "gotolink": "https://ad.admitad.com/g/s1i6d37duw162aae1f4e354a240ce9/",
      "site_url": "https://dfsport.ru/",
      "regions": [
        {
          "region": "BY"
        },
        {
          "region": "KZ"
        },
        {
          "region": "RU"
        }
      ],
      "status": "active",
      "description": "DFsport.ru &ndash; это крупнейший дисконт-магазин скейтбордов, лонгбордов, горных лыж и сноубордов в России. В наш ассортимент входят модельные ряды всех ведущих производителей прошлых сезонов. Разница в цене для покупателя от новых коллекций составляет от 30%. При этом оборудование не успело устареть даже &laquo;морально&raquo;.\r\n\r\nПреимущества для партнеров:\r\n\r\n\r\n\tСредний чек &ndash; 8800 руб.\r\n\tСреднее количество товаров в заказе &ndash; 2,7 шт.\r\n\tКорректные остатки в XML фиде.\r\n\tТехническая поддержка партнеров.\r\n\r\n\r\nПортрет покупателя:\r\n\r\n\r\n\tГеография: РФ.\r\n\tВозраст от 25 до 44 лет.\r\n\tМужчины - 70%, женщины &ndash; 30%.\r\n\r\n\r\nПреимущества для клиентов:\r\n\r\n\r\n\tНизкая цена товара.\r\n\tТовар оригинальный.\r\n\tГарантия на весь ассортимент.\r\n\t5 звезд по отзывам на Яндекс.Маркете.\r\n\tИндивидуальная работа с каждым клиентом (консультации по телефону, e-mail, соц. сетям, мессенджерам).\r\n\tБыстрая и недорогая доставка в любую точку России.\r\n\tБесплатная доставка по Москве.\r\n\tВозможность оформить покупку в кредит на сайте.\r\n\r\n\r\nПри работе с партнерами рассчитываем на долгосрочное сотрудничество, поэтому со своей стороны готовы прилагать максимум усилий.",
      "modified_date": "2019-01-29T13:47:13",
      "categories": [
        {
          "language": "en",
          "id": 62,
          "parent": null,
          "name": "Online Shops"
        },
        {
          "language": "en",
          "id": 64,
          "parent": {
            "language": "en",
            "id": 62,
            "parent": null,
            "name": "Online Shops"
          },
          "name": "Clothing & Shoes"
        },
        {
          "language": "en",
          "id": 69,
          "parent": {
            "language": "en",
            "id": 62,
            "parent": null,
            "name": "Online Shops"
          },
          "name": "Kids Shops"
        },
        {
          "language": "en",
          "id": 85,
          "parent": {
            "language": "en",
            "id": 62,
            "parent": null,
            "name": "Online Shops"
          },
          "name": "Sport"
        }
      ],
      "name": "Dfsport"
    }
  ],
  "_meta": {
    "count": 667,
    "limit": 5,
    "offset": 500
  }
}